::1(admin)--query--tables(delete from table_user_online where time < 1657261026) (13:27:06 08/07/2022)
::1(admin)--query--tables(delete from table_user_online where time < 1657261028) (13:27:08 08/07/2022)
::1(admin)--query--tables(delete from table_user_online where time < 1657261031) (13:27:11 08/07/2022)
::1(admin)--update--news([["","id","=","6"]]) (13:27:11 08/07/2022)
