::1(admin)--query--tables(delete from table_user_online where time < 1655085083) (09:01:23 13/06/2022)
::1(admin)--query--tables(delete from table_user_online where time < 1655085101) (09:01:41 13/06/2022)
::1(admin)--query--tables(delete from table_user_online where time < 1655131777) (21:59:37 13/06/2022)
::1(admin)--query--tables(delete from table_user_online where time < 1655136973) (23:26:13 13/06/2022)
::1(admin)--query--tables(delete from table_user_online where time < 1655136974) (23:26:14 13/06/2022)
::1(admin)--query--tables(delete from table_user_online where time < 1655137008) (23:26:48 13/06/2022)
