::1(admin)--query--tables(delete from table_user_online where time < 1660614008) (08:50:08 16/08/2022)
::1(admin)--query--tables(delete from table_user_online where time < 1660614010) (08:50:10 16/08/2022)
::1(admin)--query--tables(delete from table_user_online where time < 1660614059) (08:50:59 16/08/2022)
::1(admin)--query--tables(delete from table_user_online where time < 1660614060) (08:51:00 16/08/2022)
::1(admin)--query--tables(delete from table_user_online where time < 1660614061) (08:51:01 16/08/2022)
::1(admin)--update--news([["","id","=","5"]]) (08:51:01 16/08/2022)
::1(admin)--update--news([["","id","=","5"],["AND","type","=","tin-tuc"]]) (08:51:31 16/08/2022)
::1(admin)--query--tables(delete from table_seo where idmuc = '5' and com = 'news' and act = 'man' and type = 'tin-tuc') (08:51:31 16/08/2022)
::1(admin)--insert--seo(1073) (08:51:31 16/08/2022)
::1()--query--tables(delete from table_user_online where time < 1660638149) (15:32:30 16/08/2022)
::1(admin)--query--tables(delete from table_seo where idmuc = '5' and com = 'news' and act = 'man' and type = 'tin-tuc') (15:47:15 16/08/2022)
::1(admin)--query--tables(delete from table_news where id = '5') (15:47:15 16/08/2022)
::1(admin)--query--tables(delete from table_seo where idmuc = '4' and com = 'news' and act = 'man' and type = 'tin-tuc') (15:47:15 16/08/2022)
::1(admin)--query--tables(delete from table_news where id = '4') (15:47:15 16/08/2022)
::1(admin)--query--tables(delete from table_seo where idmuc = '3' and com = 'news' and act = 'man' and type = 'tin-tuc') (15:47:15 16/08/2022)
::1(admin)--query--tables(delete from table_news where id = '3') (15:47:15 16/08/2022)
::1(admin)--query--tables(delete from table_seo where idmuc = '22' and com = 'news' and act = 'man' and type = 'tin-tuc') (15:47:15 16/08/2022)
::1(admin)--query--tables(delete from table_news where id = '22') (15:47:15 16/08/2022)
::1(admin)--insert--news(34) (15:48:26 16/08/2022)
::1(admin)--insert--seo(1073) (15:48:26 16/08/2022)
::1(admin)--query--tables(delete from table_user_online where time < 1660639107) (15:48:27 16/08/2022)
::1(admin)--update--news([["","id","=","34"]]) (15:48:29 16/08/2022)
::1(admin)--insert--news(35) (15:48:49 16/08/2022)
::1(admin)--insert--seo(1074) (15:48:49 16/08/2022)
::1(admin)--query--tables(delete from table_user_online where time < 1660639129) (15:48:49 16/08/2022)
::1(admin)--update--news([["","id","=","35"]]) (15:48:51 16/08/2022)
::1(admin)--insert--news(36) (15:49:09 16/08/2022)
::1(admin)--insert--seo(1075) (15:49:09 16/08/2022)
::1(admin)--query--tables(delete from table_user_online where time < 1660639150) (15:49:10 16/08/2022)
::1(admin)--update--news([["","id","=","36"]]) (15:49:11 16/08/2022)
::1(admin)--insert--news(37) (15:49:29 16/08/2022)
::1(admin)--insert--seo(1076) (15:49:29 16/08/2022)
::1(admin)--query--tables(delete from table_user_online where time < 1660639170) (15:49:30 16/08/2022)
::1(admin)--update--news([["","id","=","37"]]) (15:49:31 16/08/2022)
::1(admin)--query--tables(delete from table_user_online where time < 1660639305) (15:51:45 16/08/2022)
::1(admin)--query--tables(delete from table_user_online where time < 1660639309) (15:51:49 16/08/2022)
::1(admin)--query--tables(delete from table_user_online where time < 1660639346) (15:52:26 16/08/2022)
::1(admin)--query--tables(delete from table_user_online where time < 1660639346) (15:52:26 16/08/2022)
::1(admin)--query--tables(delete from table_user_online where time < 1660639346) (15:52:26 16/08/2022)
::1(admin)--query--tables(delete from table_user_online where time < 1660639347) (15:52:27 16/08/2022)
::1(admin)--query--tables(delete from table_user_online where time < 1660639347) (15:52:27 16/08/2022)
::1(admin)--query--tables(delete from table_user_online where time < 1660639384) (15:53:04 16/08/2022)
::1(admin)--update--news([["","id","=","37"]]) (15:53:17 16/08/2022)
::1(admin)--update--news([["","id","=","37"]]) (15:53:18 16/08/2022)
::1(admin)--query--tables(delete from table_user_online where time < 1660639399) (15:53:19 16/08/2022)
::1(admin)--query--tables(delete from table_user_online where time < 1660639464) (15:54:24 16/08/2022)
::1(admin)--query--tables(delete from table_user_online where time < 1660639687) (15:58:07 16/08/2022)
::1(admin)--query--tables(delete from table_user_online where time < 1660639739) (15:58:59 16/08/2022)
::1(admin)--query--tables(delete from table_user_online where time < 1660639775) (15:59:35 16/08/2022)
::1(admin)--query--tables(delete from table_user_online where time < 1660639775) (15:59:35 16/08/2022)
::1(admin)--query--tables(delete from table_user_online where time < 1660639775) (15:59:35 16/08/2022)
::1(admin)--query--tables(delete from table_user_online where time < 1660639775) (15:59:35 16/08/2022)
::1(admin)--query--tables(delete from table_user_online where time < 1660640315) (16:08:35 16/08/2022)
::1(admin)--query--tables(delete from table_user_online where time < 1660640322) (16:08:42 16/08/2022)
::1(admin)--query--tables(delete from table_user_online where time < 1660640339) (16:08:59 16/08/2022)
::1(admin)--query--tables(delete from table_user_online where time < 1660640771) (16:16:11 16/08/2022)
::1(admin)--query--tables(delete from table_user_online where time < 1660640831) (16:17:11 16/08/2022)
::1(admin)--query--tables(delete from table_user_online where time < 1660640862) (16:17:42 16/08/2022)
::1(admin)--query--tables(delete from table_user_online where time < 1660640875) (16:17:55 16/08/2022)
::1(admin)--query--tables(delete from table_user_online where time < 1660640914) (16:18:34 16/08/2022)
::1(admin)--query--tables(delete from table_user_online where time < 1660640951) (16:19:11 16/08/2022)
::1(admin)--query--tables(delete from table_user_online where time < 1660641008) (16:20:08 16/08/2022)
::1(admin)--query--tables(delete from table_user_online where time < 1660641293) (16:24:53 16/08/2022)
::1(admin)--query--tables(delete from table_user_online where time < 1660641864) (16:34:24 16/08/2022)
::1(admin)--query--tables(delete from table_user_online where time < 1660641923) (16:35:23 16/08/2022)
::1(admin)--query--tables(delete from table_user_online where time < 1660641947) (16:35:47 16/08/2022)
::1(admin)--update--news([["","id","=","34"],["AND","type","=","tin-tuc"]]) (16:36:03 16/08/2022)
::1(admin)--query--tables(delete from table_seo where idmuc = '34' and com = 'news' and act = 'man' and type = 'tin-tuc') (16:36:03 16/08/2022)
::1(admin)--insert--seo(1077) (16:36:03 16/08/2022)
::1(admin)--query--tables(delete from table_user_online where time < 1660641965) (16:36:05 16/08/2022)
::1(admin)--query--tables(delete from table_user_online where time < 1660642013) (16:36:53 16/08/2022)
::1(admin)--update--news([["","id","=","34"],["AND","type","=","tin-tuc"]]) (16:37:09 16/08/2022)
::1(admin)--query--tables(delete from table_seo where idmuc = '34' and com = 'news' and act = 'man' and type = 'tin-tuc') (16:37:09 16/08/2022)
::1(admin)--insert--seo(1078) (16:37:09 16/08/2022)
::1(admin)--query--tables(delete from table_user_online where time < 1660642030) (16:37:10 16/08/2022)
::1(admin)--query--tables(delete from table_user_online where time < 1660642088) (16:38:08 16/08/2022)
::1(admin)--query--tables(delete from table_user_online where time < 1660642130) (16:38:50 16/08/2022)
::1(admin)--update--news([["","id","=","37"]]) (16:39:08 16/08/2022)
::1(admin)--update--news([["","id","=","37"]]) (16:39:08 16/08/2022)
::1(admin)--query--tables(delete from table_user_online where time < 1660642149) (16:39:09 16/08/2022)
::1(admin)--query--tables(delete from table_user_online where time < 1660642150) (16:39:10 16/08/2022)
::1(admin)--query--tables(delete from table_user_online where time < 1660642824) (16:50:24 16/08/2022)
::1(admin)--query--tables(delete from table_user_online where time < 1660642980) (16:53:00 16/08/2022)
::1(admin)--query--tables(delete from table_user_online where time < 1660643037) (16:53:57 16/08/2022)
::1(admin)--query--tables(delete from table_user_online where time < 1660643060) (16:54:20 16/08/2022)
::1(admin)--query--tables(delete from table_user_online where time < 1660643097) (16:54:57 16/08/2022)
::1(admin)--query--tables(delete from table_user_online where time < 1660643208) (16:56:48 16/08/2022)
