::1(admin)--query--tables(delete from table_user_online where time < 1660875194) (09:23:14 19/08/2022)
::1(admin)--query--tables(delete from table_user_online where time < 1660875196) (09:23:16 19/08/2022)
::1(admin)--query--tables(delete from table_user_online where time < 1660875248) (09:24:08 19/08/2022)
::1(admin)--query--tables(delete from table_user_online where time < 1660875290) (09:24:50 19/08/2022)
::1(admin)--query--tables(delete from table_user_online where time < 1660875345) (09:25:45 19/08/2022)
::1(admin)--query--tables(delete from table_user_online where time < 1660875359) (09:26:00 19/08/2022)
::1(admin)--insert--photo(81) (09:26:22 19/08/2022)
::1(admin)--query--tables(delete from table_user_online where time < 1660875383) (09:26:23 19/08/2022)
::1(admin)--query--tables(delete from table_user_online where time < 1660875385) (09:26:25 19/08/2022)
::1(admin)--query--tables(delete from table_user_online where time < 1660875550) (09:29:10 19/08/2022)
::1(admin)--query--tables(delete from table_photo where id = '81' and type = 'slide') (09:29:25 19/08/2022)
::1(admin)--query--tables(delete from table_user_online where time < 1660875567) (09:29:27 19/08/2022)
