::1(admin)--query--tables(delete from table_user_online where time < 1658904453) (13:57:33 27/07/2022)
::1(admin)--query--tables(delete from table_user_online where time < 1658904454) (13:57:34 27/07/2022)
::1(admin)--query--tables(delete from table_user_online where time < 1658904517) (13:58:37 27/07/2022)
::1(admin)--query--tables(delete from table_user_online where time < 1658905943) (14:22:23 27/07/2022)
