::1(admin)--query--tables(delete from table_user_online where time < 1658974011) (09:16:51 28/07/2022)
::1(admin)--query--tables(delete from table_user_online where time < 1658976073) (09:51:13 28/07/2022)
::1(admin)--query--tables(delete from table_user_online where time < 1658976106) (09:51:46 28/07/2022)
