::1()--query--tables(delete from table_user_online where time < 1648630383) (16:03:03 30/03/2022)
::1(admin)--insert--gallery(24) (16:15:14 30/03/2022)
::1(admin)--update--gallery([["","id","=","16"]]) (16:15:14 30/03/2022)
::1(admin)--insert--gallery(25) (16:15:16 30/03/2022)
::1(admin)--update--gallery([["","id","=","16"]]) (16:15:16 30/03/2022)
::1(admin)--insert--gallery(26) (16:15:17 30/03/2022)
::1(admin)--update--gallery([["","id","=","16"]]) (16:15:17 30/03/2022)
::1(admin)--insert--gallery(27) (16:15:18 30/03/2022)
::1(admin)--update--gallery([["","id","=","16"]]) (16:15:18 30/03/2022)
