::1()--query--tables(delete from table_user_online where time < 1653985898) (15:41:38 31/05/2022)
::1()--query--tables(delete from table_user_online where time < 1654008278) (21:54:38 31/05/2022)
::1()--query--tables(delete from table_user_online where time < 1654008280) (21:54:40 31/05/2022)
::1()--query--tables(delete from table_user_online where time < 1654008288) (21:54:48 31/05/2022)
::1(admin)--query--tables(delete from table_user_online where time < 1654010858) (22:37:38 31/05/2022)
